<svg width="148" height="148" viewBox="0 0 148 148" fill="none" xmlns="http://www.w3.org/2000/svg">
<rect width="148" height="148" rx="12" fill="#413B3B"/>
<path d="M117.154 64.9805H113.65V64.8H74.5V82.2H99.084C95.4975 92.329 85.86 99.6 74.5 99.6C60.0863 99.6 48.4 87.9137 48.4 73.5C48.4 59.0863 60.0863 47.4 74.5 47.4C81.1533 47.4 87.2063 49.9099 91.8152 54.0098L104.119 41.7058C96.3501 34.4653 85.9579 30 74.5 30C50.4771 30 31 49.4771 31 73.5C31 97.5229 50.4771 117 74.5 117C98.5229 117 118 97.5229 118 73.5C118 70.5833 117.7 67.7362 117.154 64.9805Z" fill="#FFC107"/>
<path d="M36.0156 53.2529L50.3075 63.7342C54.1747 54.1599 63.5403 47.4 74.5001 47.4C81.1534 47.4 87.2064 49.9099 91.8153 54.0098L104.119 41.7058C96.3501 34.4653 85.958 30 74.5001 30C57.7917 30 43.3019 39.433 36.0156 53.2529Z" fill="#FF3D00"/>
<path d="M74.4993 117C85.7354 117 95.9448 112.7 103.664 105.707L90.2006 94.3147C85.6865 97.7477 80.1705 99.6044 74.4993 99.5999C63.185 99.5999 53.578 92.3855 49.9588 82.3174L35.7734 93.2468C42.9727 107.334 57.593 117 74.4993 117Z" fill="#4CAF50"/>
<path d="M117.154 64.9806H113.65V64.8H74.5V82.2H99.084C97.3684 87.0207 94.278 91.2332 90.1948 94.317L90.2013 94.3126L103.665 105.705C102.712 106.571 118 95.25 118 73.5C118 70.5834 117.7 67.7363 117.154 64.9806Z" fill="#1976D2"/>
</svg>
