<svg width="148" height="148" viewBox="0 0 148 148" fill="none" xmlns="http://www.w3.org/2000/svg">
<rect width="148" height="148" rx="12" fill="#413B3B"/>
<path d="M43.3822 41.3569C46.4605 43.8567 47.6159 43.6669 53.4013 43.2792L107.933 40.0081C109.088 40.0081 108.127 38.8531 107.743 38.6633L98.6812 32.117C96.9481 30.7722 94.6331 29.2295 90.2013 29.6131L37.4029 33.4658C35.4799 33.6556 35.092 34.6208 35.8596 35.3881L43.3822 41.3569ZM46.6545 54.0619V111.416C46.6545 114.497 48.1936 115.652 51.664 115.458L111.593 111.993C115.063 111.804 115.451 109.683 115.451 107.179V50.2092C115.451 47.7094 114.49 46.3606 112.365 46.5503L49.7369 50.2092C47.4261 50.403 46.6545 51.558 46.6545 54.0578V54.0619ZM105.816 57.135C106.2 58.8675 105.816 60.6 104.083 60.798L101.194 61.3755V103.714C98.6853 105.063 96.3745 105.835 94.4474 105.835C91.3608 105.835 90.5892 104.869 88.2783 101.986L69.3914 72.3439V101.021L75.3666 102.374C75.3666 102.374 75.3666 105.839 70.5468 105.839L57.2513 106.606C56.8675 105.839 57.2513 103.912 58.6006 103.529L62.0669 102.568V64.6466L57.2595 64.2589C56.8716 62.5264 57.8372 60.0266 60.5318 59.8328L74.793 58.8717L94.4516 88.8975V62.3325L89.4379 61.7591C89.0541 59.6389 90.5933 58.1003 92.5204 57.9105L105.816 57.135ZM32.971 28.2683L87.8946 24.2259C94.6373 23.6484 96.3745 24.032 100.612 27.1133L118.146 39.4306C121.034 41.5467 122 42.1242 122 44.4342V111.993C122 116.226 120.461 118.734 115.067 119.113L51.2803 122.966C47.2363 123.16 45.3051 122.582 43.1841 119.884L30.2723 103.137C27.9615 100.056 27 97.7497 27 95.0519V35.0003C27 31.5395 28.5433 28.6478 32.971 28.2683Z" fill="#F9F4F4"/>
</svg>
