<svg width="148" height="148" viewBox="0 0 148 148" fill="none" xmlns="http://www.w3.org/2000/svg">
<rect width="148" height="148" rx="12" fill="#413B3B"/>
<path d="M40.8239 115.203L33 27H119L111.166 115.189L75.9477 125L40.8239 115.203Z" fill="#1572B6"/>
<path d="M75 114L101.715 106.386L108 34H75V114Z" fill="#33A9DC"/>
<path d="M75 64.7485H88.7213L89.6674 54.2515H75V44H101L100.752 46.7494L98.2054 75H75V64.7485Z" fill="white"/>
<path d="M75 91.2845L74.9525 91.2978L63.2744 88.203L62.528 80H52L53.4691 96.1498L74.9491 102L75 101.987V91.2845Z" fill="#EBEBEB"/>
<path d="M87.6932 75L86.4568 88.4886L75 91.5194V102L96.059 96.2774L96.2152 94.5762L98 75H87.6932Z" fill="white"/>
<path d="M75 44V54.2515H49.9301L49.7219 51.9465L49.2485 46.7494L49 44H75ZM74.9631 64.7485V75H63.5497L63.3415 72.695L62.8714 67.4979L62.6229 64.7485H74.9631Z" fill="#EBEBEB"/>
</svg>
