<svg width="148" height="148" viewBox="0 0 148 148" fill="none" xmlns="http://www.w3.org/2000/svg">
<rect width="148" height="148" rx="12" fill="#413B3B"/>
<path d="M126.894 29.8886L103.65 18.6979C102.337 18.065 100.86 17.8561 99.4234 18.1002C97.9867 18.3444 96.6616 19.0294 95.6317 20.0604L19.5418 89.4302C18.6186 90.2679 18.066 91.438 18.0055 92.6831C17.9451 93.9283 18.3817 95.1464 19.2193 96.0697C19.3201 96.1785 19.4209 96.2833 19.5297 96.3801L25.7419 102.024C26.5536 102.763 27.5985 103.194 28.695 103.242C29.7916 103.291 30.8705 102.954 31.7444 102.29L123.395 32.7911C124.087 32.2658 124.912 31.9442 125.777 31.8624C126.643 31.7806 127.513 31.9419 128.292 32.3282C129.07 32.7145 129.725 33.3104 130.184 34.0488C130.642 34.7873 130.885 35.6389 130.885 36.5079V36.2378C130.885 34.9112 130.51 33.6114 129.804 32.4882C129.098 31.365 128.089 30.4639 126.894 29.8886Z" fill="#0065A9"/>
<path d="M126.894 118.334L103.65 129.529C102.337 130.16 100.86 130.368 99.4239 130.124C97.9876 129.88 96.6625 129.196 95.6317 128.166L19.5418 58.7925C18.6186 57.9548 18.066 56.7847 18.0055 55.5395C17.9451 54.2944 18.3817 53.0762 19.2193 52.153C19.3201 52.0442 19.4209 51.9394 19.5297 51.8426L25.7419 46.1989C26.5545 45.457 27.6017 45.0239 28.701 44.9753C29.8002 44.9267 30.8816 45.2655 31.7565 45.9328L123.395 115.432C124.087 115.957 124.912 116.279 125.777 116.36C126.643 116.442 127.513 116.281 128.292 115.894C129.07 115.508 129.725 114.912 130.184 114.174C130.642 113.435 130.885 112.584 130.885 111.715V112.005C130.881 113.328 130.504 114.623 129.798 115.743C129.093 116.862 128.086 117.76 126.894 118.334Z" fill="#007ACC"/>
<path d="M103.65 129.529C102.337 130.16 100.86 130.368 99.4238 130.124C97.9875 129.88 96.6625 129.196 95.6316 128.167C96.2105 128.738 96.9452 129.126 97.7435 129.281C98.5419 129.437 99.3684 129.353 100.12 129.041C100.871 128.729 101.513 128.203 101.966 127.527C102.419 126.851 102.663 126.057 102.666 125.244V22.9791C102.667 22.1619 102.425 21.3629 101.971 20.6833C101.517 20.0037 100.872 19.4741 100.117 19.1616C99.362 18.849 98.5311 18.7676 97.7298 18.9276C96.9284 19.0877 96.1926 19.4819 95.6155 20.0605C96.6456 19.0299 97.9704 18.3448 99.4069 18.0999C100.843 17.8551 102.32 18.0627 103.634 18.6939L126.874 29.8685C128.073 30.441 129.086 31.3408 129.796 32.4642C130.505 33.5877 130.883 34.8889 130.885 36.2177V112.005C130.885 113.333 130.51 114.634 129.804 115.758C129.097 116.882 128.087 117.783 126.89 118.358L103.65 129.529Z" fill="#1F9CF0"/>
</svg>
